<svg width="6" height="11" viewBox="0 0 6 11" fill="none" xmlns="http://www.w3.org/2000/svg">
<path d="M0 9.78516C0 10.418 0.738281 10.7344 1.19531 10.2773L5.69531 5.77734C5.97656 5.49609 5.97656 5.03906 5.69531 4.75781L1.19531 0.257812C0.738281 -0.199219 0 0.117188 0 0.75V9.78516Z" fill="#101010"/>
</svg>
