<svg width="23" height="20" viewBox="0 0 23 20" fill="none" xmlns="http://www.w3.org/2000/svg">
<path d="M20.8516 1.45703C18.4883 -0.5625 15.0078 -0.175781 12.8164 2.05859L12 2.91797L11.1406 2.05859C8.99219 -0.175781 5.46875 -0.5625 3.10547 1.45703C0.398438 3.77734 0.269531 7.90234 2.67578 10.3945L11.0117 18.9883C11.5273 19.5469 12.4297 19.5469 12.9453 18.9883L21.2812 10.3945C23.6875 7.90234 23.5586 3.77734 20.8516 1.45703Z" fill="#BB2A36"/>
</svg>
